\beamer@endinputifotherversion {3.10pt}
\select@language {english}
\beamer@subsectionintoc {1}{1}{Assumptions}{2}{0}{1}
\beamer@sectionintoc {1}{2D planner}{2}{0}{1}
\beamer@subsectionintoc {2}{1}{3D Results}{7}{0}{2}
\beamer@sectionintoc {2}{3D planner}{7}{0}{2}
\beamer@subsectionintoc {2}{2}{To Dos}{8}{0}{2}
